<svg aria-hidden="true" style="position: absolute; width: 0; height: 0; overflow: hidden;" version="1.1" xmlns="http://www.w3.org/2000/svg" xmlns:xlink="http://www.w3.org/1999/xlink">

    <symbol id="logo" viewBox="0 0 30 30" xmlns="http://www.w3.org/2000/svg">
        <path fillRule="evenodd" clipRule="evenodd" d="M20.25 0H10.25V10H0V20H10.25V30H20.25V20H30V10H20.25V0Z" />
        <g style="mix-blend-mode:hard-light">
            <path d="M6.63459 18V12.1818H8.93004C9.37133 12.1818 9.74728 12.2661 10.0579 12.4347C10.3685 12.6013 10.6052 12.8333 10.7681 13.1307C10.9329 13.4261 11.0153 13.767 11.0153 14.1534C11.0153 14.5398 10.9319 14.8807 10.7653 15.1761C10.5986 15.4716 10.3571 15.7017 10.0408 15.8665C9.72644 16.0312 9.34576 16.1136 8.89879 16.1136H7.43572V15.1278H8.69993C8.93667 15.1278 9.13175 15.0871 9.28516 15.0057C9.44046 14.9223 9.55599 14.8078 9.63175 14.6619C9.7094 14.5142 9.74822 14.3447 9.74822 14.1534C9.74822 13.9602 9.7094 13.7917 9.63175 13.6477C9.55599 13.5019 9.44046 13.3892 9.28516 13.3097C9.12985 13.2282 8.93288 13.1875 8.69425 13.1875H7.8647V18H6.63459ZM11.8143 12.1818H13.3313L14.9336 16.0909H15.0018L16.604 12.1818H18.1211V18H16.9279V14.2131H16.8796L15.3739 17.9716H14.5614L13.0558 14.1989H13.0075V18H11.8143V12.1818ZM22.2908 13.8551C22.2681 13.6259 22.1706 13.4479 21.9982 13.321C21.8259 13.1941 21.592 13.1307 21.2965 13.1307C21.0958 13.1307 20.9263 13.1591 20.788 13.2159C20.6497 13.2708 20.5437 13.3475 20.4698 13.446C20.3978 13.5445 20.3619 13.6562 20.3619 13.7812C20.3581 13.8854 20.3799 13.9763 20.4272 14.054C20.4764 14.1316 20.5437 14.1989 20.6289 14.2557C20.7141 14.3106 20.8126 14.3589 20.9244 14.4006C21.0361 14.4403 21.1554 14.4744 21.2823 14.5028L21.805 14.6278C22.0588 14.6847 22.2918 14.7604 22.5039 14.8551C22.716 14.9498 22.8997 15.0663 23.055 15.2045C23.2103 15.3428 23.3306 15.5057 23.4158 15.6932C23.503 15.8807 23.5475 16.0956 23.5494 16.3381C23.5475 16.6941 23.4566 17.0028 23.2766 17.2642C23.0986 17.5237 22.841 17.7254 22.5039 17.8693C22.1687 18.0114 21.7643 18.0824 21.2908 18.0824C20.8211 18.0824 20.4121 18.0104 20.0636 17.8665C19.717 17.7225 19.4461 17.5095 19.2511 17.2273C19.0579 16.9432 18.9566 16.5919 18.9471 16.1733H20.1374C20.1507 16.3684 20.2066 16.5312 20.305 16.6619C20.4054 16.7907 20.5389 16.8883 20.7056 16.9545C20.8742 17.0189 21.0645 17.0511 21.2766 17.0511C21.485 17.0511 21.6658 17.0208 21.8192 16.9602C21.9746 16.8996 22.0948 16.8153 22.18 16.7074C22.2653 16.5994 22.3079 16.4754 22.3079 16.3352C22.3079 16.2045 22.2691 16.0947 22.1914 16.0057C22.1156 15.9167 22.0039 15.8409 21.8562 15.7784C21.7103 15.7159 21.5314 15.6591 21.3192 15.608L20.6857 15.4489C20.1952 15.3295 19.8079 15.143 19.5238 14.8892C19.2397 14.6354 19.0986 14.2936 19.1005 13.8636C19.0986 13.5114 19.1924 13.2036 19.3817 12.9403C19.573 12.6771 19.8353 12.4716 20.1687 12.3239C20.502 12.1761 20.8808 12.1023 21.305 12.1023C21.7369 12.1023 22.1138 12.1761 22.4357 12.3239C22.7596 12.4716 23.0115 12.6771 23.1914 12.9403C23.3713 13.2036 23.4641 13.5085 23.4698 13.8551H22.2908Z" fill="#DFDFDF" />
        </g>
    </symbol>

    <symbol id="users" viewBox="0 0 20 16" xmlns="http://www.w3.org/2000/svg">
        <path d="M14.0909 14.4118V12.9216C14.0909 12.1311 13.7461 11.373 13.1323 10.8141C12.5186 10.2552 11.6862 9.94118 10.8182 9.94118H4.27273C3.40475 9.94118 2.57231 10.2552 1.95856 10.8141C1.3448 11.373 1 12.1311 1 12.9216V14.4118" strokeWidth="2" strokeLinecap="round" strokeLinejoin="round" />
        <path d="M7.54546 6.96078C9.35294 6.96078 10.8182 5.62642 10.8182 3.98039C10.8182 2.33437 9.35294 1 7.54546 1C5.73799 1 4.27274 2.33437 4.27274 3.98039C4.27274 5.62642 5.73799 6.96078 7.54546 6.96078Z" strokeWidth="2" strokeLinecap="round" strokeLinejoin="round" />
        <path d="M19 14.4118V12.9216C18.9995 12.2612 18.7581 11.6197 18.3139 11.0978C17.8696 10.5759 17.2476 10.2031 16.5455 10.038" strokeWidth="2" strokeLinecap="round" strokeLinejoin="round" />
        <path d="M13.2727 1.09686C13.9767 1.26101 14.6007 1.63386 15.0463 2.15662C15.4918 2.67939 15.7337 3.32234 15.7337 3.98412C15.7337 4.64589 15.4918 5.28884 15.0463 5.81161C14.6007 6.33438 13.9767 6.70723 13.2727 6.87137" strokeWidth="2" strokeLinecap="round" strokeLinejoin="round" />
    </symbol>

    <symbol id="first-indicator" viewBox="0 0 31 14" fill="none" xmlns="http://www.w3.org/2000/svg">
        <path d="M4 7L16 0.937822V13.0622L4 7Z" fill="#686868" />
        <path d="M15 7L27 0.937822V13.0622L15 7Z" fill="#686868" />
        <path d="M2 0C2 9.73333 2 13.3889 2 14" stroke="#686868" strokeWidth="3" />
    </symbol>

    <symbol id="previous-indicator" viewBox="0 0 27 14" fill="none" xmlns="http://www.w3.org/2000/svg">
        <path d="M0 7L12 0.937822L12 13.0622L0 7Z" fill="#686868" />
        <path d="M11 7L23 0.937822V13.0622L11 7Z" fill="#686868" />
    </symbol>

    <symbol id="next-indicator" viewBox="0 0 27 14" fill="none" xmlns="http://www.w3.org/2000/svg">
        <path d="M27 7L15 13.0622L15 0.937822L27 7Z" fill="#686868" />
        <path d="M16 7L4 13.0622L4 0.937822L16 7Z" fill="#686868" />
    </symbol>

    <symbol id="last-indicator" viewBox="0 0 31 14" fill="none" xmlns="http://www.w3.org/2000/svg">
        <path d="M27 7L15 13.0622L15 0.937822L27 7Z" fill="#686868" />
        <path d="M16 7L4 13.0622L4 0.937822L16 7Z" fill="#686868" />
        <path d="M29 14C29 4.26667 29 0.611111 29 -4.17233e-07" stroke="#686868" strokeWidth="3" />
    </symbol>

</svg>
